{
    "Students": [
	    {
    		"email" : "joebertja@gmail.com",
    		"lastName" : "Jacabaa",
    		"firstName" : "Joebert",
    		"age" : 23
	    },
	    {
    		"email" : "joebertjb@gmail.com",
    		"lastName" : "Jacabab",
    		"firstName" : "Joebert",
    		"age" : 23
	    }
    ]
}
